%YAML 1.1
%TAG !u! tag:unity3d.com,2011:
--- !u!1045 &1
EditorBuildSettings:
  m_ObjectHideFlags: 0
  serializedVersion: 2
  m_Scenes:
  - enabled: 1
    path: Assets/Scenes/MainMenu.unity
    guid: 90ce58e628e1a9c47aa3aa915b20c2f3
  - enabled: 1
    path: Assets/Scenes/Intro.unity
    guid: 3fbe2cebbbdbe024384ad23feb992fc7
  - enabled: 1
    path: Assets/Scenes/Credits.unity
    guid: 00167d22aaabf3c4f805ee20c8dee822
  - enabled: 1
    path: Assets/Scenes/PatTest00.unity
    guid: e713e71004acbdd46b5e6dac9b61338b
  - enabled: 1
    path: Assets/Scenes/PatTest01.unity
    guid: 65699ec9207b74840af96f1f2e299582
  - enabled: 1
    path: Assets/Scenes/PatTest02.unity
    guid: 928f68788912994489ff097e2d3a29fa
  - enabled: 1
    path: Assets/Scenes/PatTest03.unity
    guid: 6ec5e4dc9e5618d40ad946ea62c0551b
  - enabled: 1
    path: Assets/Scenes/PatTest04.unity
    guid: b39e9945d56612643baf15035d49d994
  - enabled: 1
    path: Assets/Scenes/PatTest05.unity
    guid: ba9aa0df6a7d48548b318171391380da
  - enabled: 1
    path: Assets/Scenes/PatTest06.unity
    guid: befe79a326bcc994da9a2a79dc0b7e1c
  - enabled: 1
    path: Assets/Scenes/PatTest07.unity
    guid: 85b04385076e1104d90769543e128afd
  - enabled: 1
    path: Assets/Scenes/PatTest08.unity
    guid: 7b22c1933c460424d99a4f5b88092928
  - enabled: 1
    path: Assets/Scenes/PatTest09.unity
    guid: 13e10bfccd0e42f49ac000bee9761f66
  - enabled: 1
    path: Assets/Scenes/PatTest10.unity
    guid: 73c0107c771fdeb48baa30f25492e484
  - enabled: 1
    path: Assets/Scenes/PatTest11.unity
    guid: 2ee99c457b38d15428b11858b35da4c4
  - enabled: 1
    path: Assets/Scenes/PatTest13.unity
    guid: d62dcf9e9e5d75e4a9f11df9bcc5468f
  - enabled: 1
    path: Assets/Scenes/PatTest14.unity
    guid: 80b61ee9699fc96438f92c77f125eea8
  - enabled: 1
    path: Assets/Scenes/PatTest15.unity
    guid: 67505b06b1e524dccaa45cd00d90120b
  - enabled: 1
    path: Assets/Scenes/PatTest17.unity
    guid: e6771faf724a7da448e60dd32efce3cf
  - enabled: 1
    path: Assets/Scenes/PatTest16.unity
    guid: 369670d2d34bd814abb2a940d4fd1290
  - enabled: 1
    path: Assets/Scenes/PatTest18.unity
    guid: 143ede113d48e408b82597baa3bd7097
  - enabled: 1
    path: Assets/Scenes/PatTest12.unity
    guid: a7d70c406856caa489c63ada850be0e5
  - enabled: 1
    path: Assets/Scenes/PatTest19.unity
    guid: edec35ee4dba52740bdf115831953521
  - enabled: 1
    path: Assets/Scenes/PatTest20.unity
    guid: 6544aac434d06c34faf18f2d0b7fd173
  m_configObjects:
    com.unity.adaptiveperformance.simulator.provider_settings: {fileID: 11400000, guid: b35f40808732e4402ad8aaf41391df96, type: 2}
